{
	"info": {
		"_postman_id": "c5201ef1-f603-40ed-b848-23697ad807ab",
		"name": "cbrf",
		"description": "cbrf",
		"schema": "https://schema.getpostman.com/json/collection/v2.1.0/collection.json"
	},
	"item": [
		{
			"name": "by date",
			"request": {
				"method": "GET",
				"header": [],
				"url": {
					"raw": "{{host}}XML_daily.asp?date_req=06/10/2020",
					"host": [
						"{{host}}XML_daily",
						"asp"
					],
					"query": [
						{
							"key": "date_req",
							"value": "06/10/2020"
						}
					]
				},
				"description": "by date"
			},
			"response": []
		},
		{
			"name": "by date API",
			"request": {
				"method": "GET",
				"header": [],
				"url": {
					"raw": "{{localhost}}get_by_date/08.10.2020",
					"host": [
						"{{localhost}}get_by_date"
					],
					"path": [
						"08.10.2020"
					]
				},
				"description": "by date"
			},
			"response": []
		},
		{
			"name": "main slave",
			"request": {
				"method": "GET",
				"header": [],
				"url": {
					"raw": "{{localhost}}get_by_list?date=06.10.2020&main[]=USD&main[]=EUR&slave[]=BYN&main[]=XZ&slave[]=WAT&slave[]=CHF&save=true&comment=Здесь был Вася",
					"host": [
						"{{localhost}}get_by_list"
					],
					"query": [
						{
							"key": "date",
							"value": "06.10.2020"
						},
						{
							"key": "main[]",
							"value": "USD"
						},
						{
							"key": "main[]",
							"value": "EUR"
						},
						{
							"key": "slave[]",
							"value": "BYN"
						},
						{
							"key": "main[]",
							"value": "XZ"
						},
						{
							"key": "slave[]",
							"value": "WAT"
						},
						{
							"key": "slave[]",
							"value": "CHF"
						},
						{
							"key": "save",
							"value": "true"
						},
						{
							"key": "comment",
							"value": "Здесь был Вася"
						}
					]
				},
				"description": "by date"
			},
			"response": []
		},
		{
			"name": "GetById",
			"request": {
				"method": "GET",
				"header": [],
				"url": {
					"raw": "{{localhost}}get_by_list?date_req=06/10/2020",
					"host": [
						"{{localhost}}get_by_list"
					],
					"query": [
						{
							"key": "date_req",
							"value": "06/10/2020"
						}
					]
				},
				"description": "by date"
			},
			"response": []
		}
	],
	"event": [
		{
			"listen": "prerequest",
			"script": {
				"id": "69f0c5c6-8a1d-44e0-917c-262e4643a17f",
				"type": "text/javascript",
				"exec": [
					""
				]
			}
		},
		{
			"listen": "test",
			"script": {
				"id": "4273a168-20f8-46b8-8628-73f6262afdb2",
				"type": "text/javascript",
				"exec": [
					""
				]
			}
		}
	],
	"variable": [
		{
			"id": "5564c18d-5276-45b8-81e1-233b6e531af6",
			"key": "host",
			"value": "http://www.cbr.ru/scripts/"
		},
		{
			"id": "cd2161cc-cf06-4685-b854-c087140d38d2",
			"key": "localhost",
			"value": "http://newlaravel/api/"
		}
	],
	"protocolProfileBehavior": {}
}